London,Yearly,1/1/2020,12/31/2020,0.5
London,Monthly,1/1/2020,1/31/2020,0.4
London,Weekly,1/1/2020,1/7/2020,0.3
London,Daily,1/1/2020,1/1/2020,0.005
London,Daily,2/14/2020,2/14/2020,0
London,Daily,12/31/2020,12/31/2020,0.001
